This is pdfTeX, Version 3.14159265-2.6-1.40.18 (TeX Live 2017/Debian) (preloaded format=pdflatex 2019.10.31)  1 NOV 2019 14:45
entering extended mode
 restricted \write18 enabled.
 file:line:error style messages enabled.
 %&-line parsing enabled.
**/home/jonviter/Documents/DoliJonviter_1154016_Tugas1/main.tex
(/home/jonviter/Documents/DoliJonviter_1154016_Tugas1/main.tex
LaTeX2e <2017-04-15>
Babel <3.18> and hyphenation patterns for 84 language(s) loaded.
(/home/jonviter/Documents/DoliJonviter_1154016_Tugas1/ociamthesis.cls
Document Class: ociamthesis 2010/11/22 v2.2 OCIAM thesis class
(/usr/share/texlive/texmf-dist/tex/latex/base/report.cls
Document Class: report 2014/09/29 v1.4h Standard LaTeX document class
(/usr/share/texlive/texmf-dist/tex/latex/base/size12.clo
File: size12.clo 2014/09/29 v1.4h Standard LaTeX file (size option)
)
\c@part=\count79
\c@chapter=\count80
\c@section=\count81
\c@subsection=\count82
\c@subsubsection=\count83
\c@paragraph=\count84
\c@subparagraph=\count85
\c@figure=\count86
\c@table=\count87
\abovecaptionskip=\skip41
\belowcaptionskip=\skip42
\bibindent=\dimen102
) (/usr/share/texlive/texmf-dist/tex/latex/graphics/graphicx.sty
Package: graphicx 2017/06/01 v1.1a Enhanced LaTeX Graphics (DPC,SPQR)
 (/usr/share/texlive/texmf-dist/tex/latex/graphics/keyval.sty
Package: keyval 2014/10/28 v1.15 key=value parser (DPC)
\KV@toks@=\toks14
) (/usr/share/texlive/texmf-dist/tex/latex/graphics/graphics.sty
Package: graphics 2017/06/25 v1.2c Standard LaTeX Graphics (DPC,SPQR)
 (/usr/share/texlive/texmf-dist/tex/latex/graphics/trig.sty
Package: trig 2016/01/03 v1.10 sin cos tan (DPC)
) (/usr/share/texlive/texmf-dist/tex/latex/graphics-cfg/graphics.cfg
File: graphics.cfg 2016/06/04 v1.11 sample graphics configuration
)
Package graphics Info: Driver file: pdftex.def on input line 99.
 (/usr/share/texlive/texmf-dist/tex/latex/graphics-def/pdftex.def
File: pdftex.def 2018/01/08 v1.0l Graphics/color driver for pdftex
))
\Gin@req@height=\dimen103
\Gin@req@width=\dimen104
) (/usr/share/texlive/texmf-dist/tex/latex/base/ifthen.sty
Package: ifthen 2014/09/29 v1.1c Standard LaTeX ifthen package (DPC)
)) (/usr/share/texlive/texmf-dist/tex/latex/amsfonts/amssymb.sty
Package: amssymb 2013/01/14 v3.01 AMS font symbols
 (/usr/share/texlive/texmf-dist/tex/latex/amsfonts/amsfonts.sty
Package: amsfonts 2013/01/14 v3.01 Basic AMSFonts support
\@emptytoks=\toks15
\symAMSa=\mathgroup4
\symAMSb=\mathgroup5
LaTeX Font Info:    Overwriting math alphabet `\mathfrak' in version `bold'
(Font)                  U/euf/m/n --> U/euf/b/n on input line 106.
)) (/usr/share/texlive/texmf-dist/tex/latex/multirow/multirow.sty
Package: multirow 2016/11/25 v2.2 Span multiple rows of a table
\multirow@colwidth=\skip43
\multirow@cntb=\count88
\multirow@dima=\skip44
\bigstrutjot=\dimen105
) (/home/jonviter/Documents/DoliJonviter_1154016_Tugas1/main.aux (/home/jonviter/Documents/DoliJonviter_1154016_Tugas1/section/chapter1.aux

LaTeX Warning: Label `gambar' multiply defined.


LaTeX Warning: Label `gambar' multiply defined.


LaTeX Warning: Label `gambar' multiply defined.


LaTeX Warning: Label `gambar' multiply defined.


LaTeX Warning: Label `gambar' multiply defined.


LaTeX Warning: Label `gambar' multiply defined.


LaTeX Warning: Label `gambar' multiply defined.


LaTeX Warning: Label `gambar' multiply defined.


LaTeX Warning: Label `gambar' multiply defined.


LaTeX Warning: Label `gambar' multiply defined.


LaTeX Warning: Label `gambar' multiply defined.


LaTeX Warning: Label `gambar' multiply defined.

))
\openout1 = `main.aux'.

LaTeX Font Info:    Checking defaults for OML/cmm/m/it on input line 26.
LaTeX Font Info:    ... okay on input line 26.
LaTeX Font Info:    Checking defaults for T1/cmr/m/n on input line 26.
LaTeX Font Info:    ... okay on input line 26.
LaTeX Font Info:    Checking defaults for OT1/cmr/m/n on input line 26.
LaTeX Font Info:    ... okay on input line 26.
LaTeX Font Info:    Checking defaults for OMS/cmsy/m/n on input line 26.
LaTeX Font Info:    ... okay on input line 26.
LaTeX Font Info:    Checking defaults for OMX/cmex/m/n on input line 26.
LaTeX Font Info:    ... okay on input line 26.
LaTeX Font Info:    Checking defaults for U/cmr/m/n on input line 26.
LaTeX Font Info:    ... okay on input line 26.
 (/usr/share/texlive/texmf-dist/tex/context/base/mkii/supp-pdf.mkii
[Loading MPS to PDF converter (version 2006.09.02).]
\scratchcounter=\count89
\scratchdimen=\dimen106
\scratchbox=\box26
\nofMPsegments=\count90
\nofMParguments=\count91
\everyMPshowfont=\toks16
\MPscratchCnt=\count92
\MPscratchDim=\dimen107
\MPnumerator=\count93
\makeMPintoPDFobject=\count94
\everyMPtoPDFconversion=\toks17
) (/usr/share/texlive/texmf-dist/tex/latex/oberdiek/epstopdf-base.sty
Package: epstopdf-base 2016/05/15 v2.6 Base part for package epstopdf
 (/usr/share/texlive/texmf-dist/tex/generic/oberdiek/infwarerr.sty
Package: infwarerr 2016/05/16 v1.4 Providing info/warning/error messages (HO)
) (/usr/share/texlive/texmf-dist/tex/latex/oberdiek/grfext.sty
Package: grfext 2016/05/16 v1.2 Manage graphics extensions (HO)
 (/usr/share/texlive/texmf-dist/tex/generic/oberdiek/kvdefinekeys.sty
Package: kvdefinekeys 2016/05/16 v1.4 Define keys (HO)
 (/usr/share/texlive/texmf-dist/tex/generic/oberdiek/ltxcmds.sty
Package: ltxcmds 2016/05/16 v1.23 LaTeX kernel commands for general use (HO)
))) (/usr/share/texlive/texmf-dist/tex/latex/oberdiek/kvoptions.sty
Package: kvoptions 2016/05/16 v3.12 Key value format for package options (HO)
 (/usr/share/texlive/texmf-dist/tex/generic/oberdiek/kvsetkeys.sty
Package: kvsetkeys 2016/05/16 v1.17 Key value parser (HO)
 (/usr/share/texlive/texmf-dist/tex/generic/oberdiek/etexcmds.sty
Package: etexcmds 2016/05/16 v1.6 Avoid name clashes with e-TeX commands (HO)
 (/usr/share/texlive/texmf-dist/tex/generic/oberdiek/ifluatex.sty
Package: ifluatex 2016/05/16 v1.4 Provides the ifluatex switch (HO)
Package ifluatex Info: LuaTeX not detected.
)
Package etexcmds Info: Could not find \expanded.
(etexcmds)             That can mean that you are not using pdfTeX 1.50 or
(etexcmds)             that some package has redefined \expanded.
(etexcmds)             In the latter case, load this package earlier.
))) (/usr/share/texlive/texmf-dist/tex/generic/oberdiek/pdftexcmds.sty
Package: pdftexcmds 2018/01/21 v0.26 Utility functions of pdfTeX for LuaTeX (HO)
 (/usr/share/texlive/texmf-dist/tex/generic/oberdiek/ifpdf.sty
Package: ifpdf 2017/03/15 v3.2 Provides the ifpdf switch
)
Package pdftexcmds Info: LuaTeX not detected.
Package pdftexcmds Info: \pdf@primitive is available.
Package pdftexcmds Info: \pdf@ifprimitive is available.
Package pdftexcmds Info: \pdfdraftmode found.
)
Package epstopdf-base Info: Redefining graphics rule for `.eps' on input line 438.
Package grfext Info: Graphics extension search list:
(grfext)             [.pdf,.png,.jpg,.mps,.jpeg,.jbig2,.jb2,.PDF,.PNG,.JPG,.JPEG,.JBIG2,.JB2,.eps]
(grfext)             \AppendGraphicsExtensions on input line 456.
 (/usr/share/texlive/texmf-dist/tex/latex/latexconfig/epstopdf-sys.cfg
File: epstopdf-sys.cfg 2010/07/13 v1.3 Configuration of (r)epstopdf for TeX Live
))
<logo-poltekpos.png, id=1, 291.2481pt x 272.217pt>
File: logo-poltekpos.png Graphic file (type png)
<use logo-poltekpos.png>
Package pdftex.def Info: logo-poltekpos.png  used on input line 37.
(pdftex.def)             Requested size: 91.04881pt x 85.10081pt.
 [1


{/var/lib/texmf/fonts/map/pdftex/updmap/pdftex.map} </home/jonviter/Documents/DoliJonviter_1154016_Tugas1/logo-poltekpos.png>]
\openout2 = `section/chapter1.aux'.

 (/home/jonviter/Documents/DoliJonviter_1154016_Tugas1/section/chapter1.tex
BAB 1.

Overfull \hbox (22.37111pt too wide) in paragraph at lines 8--9
\OT1/cmr/m/n/12 Langkah per-tama yang harus di-lakukan adalah mem-buka web-site https://apex.oracle.com,
 []

<figures/TampilanAracleApex.png, id=14, 1354.05875pt x 596.2275pt>
File: figures/TampilanAracleApex.png Graphic file (type png)
<use figures/TampilanAracleApex.png>
Package pdftex.def Info: figures/TampilanAracleApex.png  used on input line 16.
(pdftex.def)             Requested size: 270.80695pt x 119.24338pt.
<figures/step1.png, id=15, 1219.55624pt x 656.4525pt>
File: figures/step1.png Graphic file (type png)
<use figures/step1.png>
Package pdftex.def Info: figures/step1.png  used on input line 24.
(pdftex.def)             Requested size: 243.90692pt x 131.28816pt.
<figures/pict(3).jpg, id=16, 487.8225pt x 361.35pt>
File: figures/pict(3).jpg Graphic file (type jpg)
<use figures/pict(3).jpg>
Package pdftex.def Info: figures/pict(3).jpg  used on input line 46.
(pdftex.def)             Requested size: 243.91064pt x 180.67456pt.
<figures/step2.png, id=17, 1194.4625pt x 651.43375pt>
File: figures/step2.png Graphic file (type png)
<use figures/step2.png>
Package pdftex.def Info: figures/step2.png  used on input line 56.
(pdftex.def)             Requested size: 238.88826pt x 130.28444pt.
<figures/halamanApex.png, id=18, 1371.1225pt x 590.205pt>
File: figures/halamanApex.png Graphic file (type png)
<use figures/halamanApex.png>
Package pdftex.def Info: figures/halamanApex.png  used on input line 69.
(pdftex.def)             Requested size: 411.33992pt x 177.06287pt.
<figures/createAppFromfile.png, id=19, 1019.81pt x 641.39626pt>
File: figures/createAppFromfile.png Graphic file (type png)
<use figures/createAppFromfile.png>
Package pdftex.def Info: figures/createAppFromfile.png  used on input line 79.
(pdftex.def)             Requested size: 407.91678pt x 256.55396pt.
<figures/pict(9).png, id=20, 1371.1225pt x 770.88pt>
File: figures/pict(9).png Graphic file (type png)
<use figures/pict(9).png>
Package pdftex.def Info: figures/pict(9).png  used on input line 89.
(pdftex.def)             Requested size: 274.21964pt x 154.17326pt.
<figures/sampelData.png, id=21, 1305.87875pt x 605.26125pt>
File: figures/sampelData.png Graphic file (type png)
<use figures/sampelData.png>
Package pdftex.def Info: figures/sampelData.png  used on input line 99.
(pdftex.def)             Requested size: 391.76665pt x 181.57976pt.
<figures/pict(11).png, id=22, 1371.1225pt x 770.88pt>
File: figures/pict(11).png Graphic file (type png)
<use figures/pict(11).png>
Package pdftex.def Info: figures/pict(11).png  used on input line 107.
(pdftex.def)             Requested size: 274.21964pt x 154.17326pt.
<figures/pict(12).png, id=23, 1371.1225pt x 770.88pt>
File: figures/pict(12).png Graphic file (type png)
<use figures/pict(12).png>
Package pdftex.def Info: figures/pict(12).png  used on input line 117.
(pdftex.def)             Requested size: 274.21964pt x 154.17326pt.
<figures/gambar5.png, id=24, 1083.04625pt x 595.22375pt>
File: figures/gambar5.png Graphic file (type png)
<use figures/gambar5.png>
Package pdftex.def Info: figures/gambar5.png  used on input line 128.
(pdftex.def)             Requested size: 433.21083pt x 238.08528pt.
<figures/creatSampleData.png, id=25, 1299.85625pt x 548.0475pt>
File: figures/creatSampleData.png Graphic file (type png)
<use figures/creatSampleData.png>
Package pdftex.def Info: figures/creatSampleData.png  used on input line 138.
(pdftex.def)             Requested size: 389.95988pt x 164.41551pt.
<figures/tampilaApp.png, id=26, 1165.35374pt x 582.175pt>
File: figures/tampilaApp.png Graphic file (type png)
<use figures/tampilaApp.png>
Package pdftex.def Info: figures/tampilaApp.png  used on input line 148.
(pdftex.def)             Requested size: 466.13324pt x 232.86588pt.

Overfull \hbox (32.51324pt too wide) in paragraph at lines 148--149
 [] 
 []

<figures/tampilLogin.png, id=27, 469.755pt x 447.6725pt>
File: figures/tampilLogin.png Graphic file (type png)
<use figures/tampilLogin.png>
Package pdftex.def Info: figures/tampilLogin.png  used on input line 158.
(pdftex.def)             Requested size: 187.89867pt x 179.06583pt.
<figures/hasilAkhir.png, id=28, 1371.1225pt x 644.4075pt>
File: figures/hasilAkhir.png Graphic file (type png)
<use figures/hasilAkhir.png>
Package pdftex.def Info: figures/hasilAkhir.png  used on input line 168.
(pdftex.def)             Requested size: 411.33992pt x 193.32373pt.
) [2


 </home/jonviter/Documents/DoliJonviter_1154016_Tugas1/figures/TampilanAracleApex.png>] [3 </home/jonviter/Documents/DoliJonviter_1154016_Tugas1/figures/step1.png> </home/jonviter/Documents/DoliJonviter_1154016_Tugas1/figures/pict(3).jpg>] [4 </home/jonviter/Documents/DoliJonviter_1154016_Tugas1/figures/step2.png> </home/jonviter/Documents/DoliJonviter_1154016_Tugas1/figures/halamanApex.png>] [5 </home/jonviter/Documents/DoliJonviter_1154016_Tugas1/figures/createAppFromfile.png> </home/jonviter/Documents/DoliJonviter_1154016_Tugas1/figures/pict(9).png>] [6 </home/jonviter/Documents/DoliJonviter_1154016_Tugas1/figures/sampelData.png> </home/jonviter/Documents/DoliJonviter_1154016_Tugas1/figures/pict(11).png>] [7 </home/jonviter/Documents/DoliJonviter_1154016_Tugas1/figures/pict(12).png> </home/jonviter/Documents/DoliJonviter_1154016_Tugas1/figures/gambar5.png>] [8 </home/jonviter/Documents/DoliJonviter_1154016_Tugas1/figures/creatSampleData.png> </home/jonviter/Documents/DoliJonviter_1154016_Tugas1/figures/tampilaApp.png>] [9 </home/jonviter/Documents/DoliJonviter_1154016_Tugas1/figures/tampilLogin.png> </home/jonviter/Documents/DoliJonviter_1154016_Tugas1/figures/hasilAkhir.png>] (/home/jonviter/Documents/DoliJonviter_1154016_Tugas1/main.bbl) [10


] (/home/jonviter/Documents/DoliJonviter_1154016_Tugas1/main.aux (/home/jonviter/Documents/DoliJonviter_1154016_Tugas1/section/chapter1.aux))

LaTeX Warning: There were multiply-defined labels.

 ) 
Here is how much of TeX's memory you used:
 1947 strings out of 492982
 28428 string characters out of 6134895
 88287 words of memory out of 5000000
 5480 multiletter control sequences out of 15000+600000
 6808 words of font info for 24 fonts, out of 8000000 for 9000
 1141 hyphenation exceptions out of 8191
 41i,6n,26p,636b,326s stack positions out of 5000i,500n,10000p,200000b,80000s
</usr/share/texlive/texmf-dist/fonts/type1/public/amsfonts/cm/cmbx12.pfb></usr/share/texlive/texmf-dist/fonts/type1/public/amsfonts/cm/cmbxti10.pfb></usr/share/texlive/texmf-dist/fonts/type1/public/amsfonts/cm/cmr12.pfb></usr/share/texlive/texmf-dist/fonts/type1/public/amsfonts/cm/cmr17.pfb></usr/share/texlive/texmf-dist/fonts/type1/public/amsfonts/cm/cmti12.pfb>
Output written on /home/jonviter/Documents/DoliJonviter_1154016_Tugas1/main.pdf (10 pages, 1367168 bytes).
PDF statistics:
 89 PDF objects out of 1000 (max. 8388607)
 40 compressed objects within 1 object stream
 0 named destinations out of 1000 (max. 500000)
 81 words of extra memory for PDF output out of 10000 (max. 10000000)

